*** Darwin 21x16 ***
Turn = 0.
  0123456789012345
0 .....f..rt...f..
1 ....h.....t....t
2 .t...........h..
3 ................
4 .f.f..h.........
5 r....r..t.......
6 ..........r.t..f
7 r..f............
8 ...r......f.h...
9 ...t..........t.
0 .....r...t......
1 ................
2 ................
3 .....t.........r
4 ............r...
5 ......h........r
6 ..f........tff..
7 ....t...rh......
8 ...r............
9 ...t..t.h.ht....
0 .......f.....f..

Turn = 3.
  0123456789012345
0 ....hf...t...f..
1 ..........t....t
2 rt........h.....
3 ........r.......
4 .f.fh...........
5 ........t.......
6 ............r.rf
7 ...f............
8 .....r....f.....
9 ...r..r.......t.
0 r.r......t......
1 ............r...
2 ............r...
3 .....t..........
4 ................
5 ...h........r..r
6 ..f.....h..ttf..
7 ....t.....r.r...
8 ................
9 .....r.r...t....
0 ...r...f..h..f..

Turn = 6.
  0123456789012345
0 r...hf...t...f..
1 ..........t....t
2 .t.....h........
3 ................
4 .f.fh...r.......
5 .........r...r..
6 ...............r
7 ...f............
8 ....r.....f.....
9 .........t....tr
0 r........t......
1 .....r....r.....
2 ..............r.
3 r....t..h.......
4 ................
5 h..........t....
6 ..f........ttt..
7 ....t........rr.
8 ...............r
9 ........r.tt....
0 .r.....f..h..f..

Turn = 9.
  0123456789012345
0 ...rhf...t...f..
1 ..........t....t
2 .t..h........r..
3 ...............r
4 .f.fhr..........
5 ....r.......r...
6 ................
7 r..f............
8 ..........f.....
9 .........t....t.
0 .........t......
1 .......rh......r
2 .....r..........
3 ....r..........r
4 r.............r.
5 ...........t....
6 r.f........ttt..
7 ....t.....r.....
8 ................
9 ..........rt.r..
0 r......f..h..f.r

*** Darwin 21x23 ***
Turn = 0.
  01234567890123456789012
0 .....h......t.........t
1 ...r.f................h
2 ....fr.................
3 ....................hh.
4 ....h..................
5 r....h..r............f.
6 ......f.......f.......h
7 ....t.h..ht............
8 .......................
9 r........r...t.........
0 ..................t....
1 ......h.r...r..........
2 ..........r............
3 ....t....h.............
4 .t....f..........r.....
5 h...............f......
6 ........h..............
7 ..t........tf.r.....h..
8 h...........f..........
9 .r..r.........r........
0 .....................f.

Turn = 10.
  01234567890123456789012
0 r..........tt........tt
1 ............r.........t
2 ....f.......r..........
3 ...........rr..........
4 h............r.........
5 ..........r.......r..f.
6 ......f..r....fh.......
7 ....tt........r........
8 ......r.............h..
9 .............t.........
0 .r................t....
1 h..r..............t....
2 ................r......
3 ....t..................
4 rt....f................
5 ................f......
6 ..r........t...........
7 ..t........tt..........
8 ............t.........r
9 r..........tt..........
0 r....................f.

Turn = 20.
  01234567890123456789012
0 ...........tt.r.r....tt
1 ............t........rr
2 ....f....r............r
3 .r........r........r...
4 .r....................r
5 .......................
6 r.....rr...............
7 ....tt.................
8 ....t..................
9 .............t........r
0 ....r.............t...r
1 ..................t....
2 ....t......r...........
3 rr..t................r.
4 r.....f................
5 ................f....rr
6 ..........tt...........
7 ..t........tt..........
8 ............t..........
9 ..........rtt..........
0 .......................

Turn = 30.
  01234567890123456789012
0 ...........tt........tt
1 ............tt........t
2 ....f..................
3 rr.........r.........r.
4 .......................
5 .......................
6 .......................
7 ....tt.................
8 ....t..................
9 rr..........tt.......r.
0 .....r........r...t..r.
1 ..................tr...
2 ....t....r.........r..r
3 ....t..........r..r.r..
4 .........r.r...........
5 ......r......r.........
6 r.........tt....r......
7 ..t.........t..........
8 ...........tt..........
9 ...........tt...r......
0 .......................

Turn = 40.
  01234567890123456789012
0 .......r...tt........tt
1 ............tt........t
2 ....f..................
3 ..................r..r.
4 .......................
5 .......................
6 .......................
7 ....tt.................
8 ....t.........r........
9 ............tr.........
0 ...............r.......
1 .r................tt...
2 r...t....r..........r..
3 r...tr..r............r.
4 ...................r.r.
5 ..........t............
6 ..........tt...........
7 r.t.........t..........
8 r..........tt..........
9 ...........tt....r...r.
0 ........r...........rrr

*** Darwin 12x18 ***
Turn = 0.
  012345678901234567
0 .....t..trht......
1 ..r...h.....t...r.
2 .........t..t....f
3 ...........r......
4 f.....f...r....r..
5 .....h.f.....tf...
6 .hrr..h.r...r.....
7 .....h......rf..tr
8 ....r......t......
9 .......r...r.....h
0 t.t......r.......t
1 ........t.....f..r

Turn = 16.
  012345678901234567
0 ....r.r..rrtr....r
1 ......r.r..t......
2 rr.....rrt.......r
3 rr...rr...r.....r.
4 .r........r.......
5 h......f.........r
6 ............r...t.
7 ...........rrr..tt
8 ..........r.......
9 ...........r.r...t
0 t................t
1 t......r........rr

Turn = 32.
  012345678901234567
0 rr.....r..tr..r...
1 .........ttr.r....
2 .........t........
3 .........r......r.
4 ........r.........
5 r......f.........t
6 .......r.......ttt
7 ........rrr....ttt
8 ................tt
9 t......r.r......tt
0 tr...r..r........t
1 r....rr.r.r.......

*** Darwin 11x12 ***
Turn = 0.
  012345678901
0 .r........hh
1 ......r..f.r
2 r..hhh...rtr
3 h.r.fr....r.
4 h.f.........
5 .......r.ft.
6 ....f...f.t.
7 .hf..h....f.
8 ..f.f.r.....
9 .r.....t...r
0 .r.....hr.r.

Turn = 6.
  012345678901
0 r......rr.rr
1 r.......rr..
2 rh....r.r...
3 r...f...r...
4 r.r.r....t.r
5 .........ttt
6 ....f...f.t.
7 r.f.......tt
8 ..f.f......r
9 ......rrt...
0 ....rr.tt...

Turn = 12.
  012345678901
0 .r..rr....r.
1 ....r.......
2 r.r..r......
3 ...r...rrrr.
4 r.....rrr.tt
5 .........ttt
6 ....f...f.t.
7 ..f.......tt
8 r.f.f......t
9 r......tt...
0 r.rr...tt...

Turn = 18.
  012345678901
0 r.....r...r.
1 r.r.....rr..
2 .......r.r..
3 .r..r.r.r.r.
4 ..r.....r..t
5 ...r.......t
6 ....f...frt.
7 r.f.......tt
8 .r.rrr.....t
9 .r.....tt...
0 .r.r..ttt...

Turn = 24.
  012345678901
0 .r.....r.rr.
1 r....r.....r
2 ....rrr.....
3 r..r.r.....r
4 ...........t
5 ...rr......t
6 ..rrr...f.t.
7 ..rr......tt
8 r..........t
9 ...r.t.tt...
0 .r.r.ttttt..

*** Darwin 23x20 ***
Turn = 0.
  01234567890123456789
0 ....................
1 r.............h.....
2 .tt.................
3 .....f..............
4 ........hh..........
5 ....h..............t
6 ..h.....hh...f...f..
7 ....................
8 ..r..h....t.........
9 .....f......f.......
0 ......tt...........r
1 .......h..........tr
2 .r..................
3 ............t.......
4 ........f...........
5 ...........r.....h..
6 ....f........ft.....
7 ...................h
8 ..........r..t...rh.
9 ..r.............r...
0 ....................
1 .......f....rf.h....
2 ..t..........f....h.

Turn = 6.
  01234567890123456789
0 ....h....h..........
1 ...................h
2 .tt.................
3 ..t..f..............
4 ...h...............r
5 r..................r
6 r............f...f..
7 ....................
8 h.........t.........
9 .....f......f....h..
0 ......tth..r........
1 .............r....tt
2 ........h........r..
3 ..r.........t.......
4 ........f...........
5 ...............h....
6 ....f.......rrt.....
7 ............r......h
8 .r..................
9 ....................
0 ...................r
1 .......r.....f......
2 ..t....r.....f...r.h

Turn = 12.
  01234567890123456789
0 r...h....h.........r
1 r...................
2 .tt..............r..
3 ..t..f..........r...
4 ..t.................
5 ....................
6 .............f...r..
7 ..r..............r..
8 h.........tt.....r..
9 .....f......f..h..r.
0 ......ttt...........
1 ..................tt
2 ....................
3 ........h...tt......
4 ........f...........
5 ....................
6 ....f.r.......t.....
7 ......r............h
8 ....................
9 ....................
0 ....................
1 ..r..........r..r...
2 .rr.........rrr.r...

Turn = 18.
  01234567890123456789
0 ...r.r...h.......r.r
1 .................r..
2 .tt........r........
3 .rt..f....r....h..r.
4 ..t.................
5 r...................
6 .............f......
7 ....................
8 h.........trr.......
9 .....f......f.......
0 ......ttt...........
1 ..................tt
2 ....................
3 ........h...tt......
4 ........f...........
5 ....................
6 .............rt.....
7 r.............r....h
8 .............r......
9 ....rr..............
0 r...................
1 .......r............
2 .......rr.r..r......

Turn = 24.
  01234567890123456789
0 .......rrr..rr.h....
1 ....................
2 .tt..r........r.....
3 .tt.rr.............r
4 ..t.................
5 ....................
6 .............f......
7 ..r.................
8 ..r....r............
9 .....f......f.......
0 ......ttt....r......
1 ..............r...tt
2 ..........r...r.....
3 ........h...tr......
4 ........f..r.r......
5 ....................
6 r...................
7 ...................h
8 ....................
9 ....r...r...........
0 ....................
1 ........r....r......
2 ..r...rr.r..........

Turn = 30.
  01234567890123456789
0 ..r.....r......h....
1 .........r..........
2 .tt.....r...........
3 .ttt.......r........
4 ..tt................
5 .........r....r.....
6 ....r........rr.....
7 .....r..r....r......
8 ....................
9 ......t.....f......r
0 r....tttt...........
1 ..................tt
2 ....................
3 ........h...tt......
4 ........r....t......
5 ........r...........
6 ........r...........
7 ...................h
8 ..........r.........
9 ..........r.........
0 ...........r........
1 ...................r
2 .rr..........r.r....

Turn = 36.
  01234567890123456789
0 r.r...........rh....
1 .............rr.....
2 .trt..........r.....
3 .ttt................
4 r.tt................
5 ....................
6 .........rr.........
7 ..............r.....
8 .........rr.........
9 ......t.....f.......
0 .....tttt.......r...
1 ..................tt
2 .............r......
3 ............tr......
4 ..r..........t......
5 ..............r.....
6 ..r.................
7 ...................r
8 ........h......r...r
9 ................r...
0 ....................
1 r...................
2 .......rr.........rr

Turn = 42.
  01234567890123456789
0 r.....r.rrr....h....
1 .......r...........r
2 rttt...............r
3 .ttt................
4 ..tt................
5 ....................
6 ....................
7 ...................r
8 ....................
9 ......t.....fr......
0 .....tttt.r.........
1 r.................tt
2 ..................r.
3 ...............r....
4 .........rr..t......
5 ...................r
6 ....................
7 r.............r.....
8 ..................r.
9 r...............r..r
0 .................r.r
1 ....................
2 .......rh.r.........

Turn = 48.
  01234567890123456789
0 ....rr........rr....
1 ..t.................
2 .ttt................
3 .ttt.........r......
4 ..tt...r.r......r...
5 ................r..r
6 .r..................
7 r...................
8 ....................
9 ......t.....f.......
0 .....ttttt..........
1 r.................rr
2 ................r..r
3 ...................r
4 .............t...r..
5 ....................
6 ....................
7 ........r...........
8 ....................
9 ..........r...r.....
0 .......r.rrr........
1 r...................
2 .......r........r..r

Turn = 54.
  01234567890123456789
0 r..........r........
1 r.t.................
2 .ttt................
3 .ttt................
4 ..tt......r.........
5 r.........r...rr....
6 .....r.r............
7 ....................
8 ....................
9 ......tt.r..f.....r.
0 .....tttt.r......r..
1 .............r...r..
2 ..........r.........
3 ....................
4 .......r....r.......
5 r...................
6 .............r......
7 ..r...............r.
8 ..................r.
9 ....r...r...........
0 .....r..............
1 ....................
2 .r......r....rr.....

Turn = 60.
  01234567890123456789
0 .....r..............
1 .tt.................
2 rttt................
3 tttt................
4 ..ttr...............
5 ....r...............
6 .............r......
7 ...............r....
8 .............r......
9 r....ttt....fr.r....
0 .....ttrr...........
1 .......rr..r........
2 ....r.........r.....
3 ....................
4 r.....r.............
5 .........r..........
6 ....................
7 .............r......
8 .............r......
9 r.r........r...r....
0 r..........r........
1 ....................
2 ..rr................

Turn = 66.
  01234567890123456789
0 r...r...............
1 .tt............r....
2 rttt................
3 tttt................
4 r.tt................
5 ....................
6 ..r.................
7 ....................
8 r......r............
9 .....tttr...........
0 .....tttt.....r....r
1 .r.....tt...........
2 ....................
3 r...................
4 r...........r.......
5 rr..................
6 ....................
7 .......r............
8 .......r......r.....
9 .....r..............
0 r....r.............r
1 .........r..........
2 r.......r...........

Turn = 72.
  01234567890123456789
0 .........r.r........
1 ttt.................
2 tttt................
3 tttt................
4 t.tt................
5 t...................
6 ........r...........
7 ....................
8 ......t.............
9 .r...tttt...........
0 .....tttt...........
1 r......tt...........
2 ....................
3 r...................
4 ....r...............
5 ....................
6 r.............r....r
7 .rr.................
8 .r..................
9 r.......r...........
0 r...........r......r
1 ....................
2 ...r.........r.r....

*** Darwin 14x14 ***
Turn = 0.
  01234567890123
0 ..f....ftr....
1 ......f...t.r.
2 ........f.....
3 ....r.r..tt..f
4 .ht..th....h..
5 ...r.........t
6 r..fr.f.t...t.
7 .r....t.......
8 .ft....r.h.h..
9 ........r.....
0 ..r.t....r.h.r
1 hf............
2 ..h..r........
3 f.......r....h

Turn = 7.
  01234567890123
0 .hf....r.r.r..
1 ......f...tt..
2 ........r..t..
3 ........rr.h.r
4 ..t..t.r..r..r
5 r....tt......r
6 ...f..t...r.th
7 ......t...r...
8 .......r......
9 ....rr........
0 r...t........r
1 rf............
2 r...r...h...r.
3 rrr...r.......

Turn = 14.
  01234567890123
0 .hf..r....t..r
1 ......f...ttth
2 ..........tt..
3 ......r.......
4 .rt..ttt.r....
5 .....rt.r...r.
6 ...f.tt....r..
7 ......t.....rr
8 .............r
9 r........r..r.
0 .rrr.r....r.r.
1 r.............
2 r..........r.h
3 r.r...........

*** Darwin 24x16 ***
Turn = 0.
  0123456789012345
0 ........f.......
1 .........r......
2 ................
3 ...h..........f.
4 t........rh.....
5 ................
6 .....t.....t....
7 ..r......h......
8 .......f..tf..f.
9 h..t............
0 ..f.......r....r
1 .....r....h.r...
2 ..t.............
3 t..........rf...
4 ........f.......
5 ....t........h..
6 ...h...t........
7 ......hr..fh..h.
8 ................
9 ...........h....
0 r...h.....r.....
1 ............r...
2 ............f.t.
3 t..r.f..........

Turn = 9.
  0123456789012345
0 .......rf.......
1 ................
2 ..r.............
3 ..............f.
4 t..............r
5 t............r..
6 .....t.....r....
7 ........r.rr....
8 .......f..rr..r.
9 ...t.......h.rrr
0 ..f.............
1 ..............r.
2 ..t.............
3 t.r.............
4 ...r....f......r
5 ....t...........
6 ....t..t........
7 .....rr........r
8 ...............r
9 ............r..h
0 .............h..
1 ..............t.
2 t...........f.t.
3 t....fh.........

Turn = 18.
  0123456789012345
0 ........f..r..r.
1 ...........h..r.
2 rr..............
3 ................
4 t..............r
5 t...r...........
6 ..rr............
7 r..r............
8 ..r............r
9 r.r...r...r..r.r
0 ..r.............
1 .........r......
2 ..t.............
3 .........r......
4 .......r..r.....
5 ....t...........
6 ....t..t........
7 .......r.......r
8 .........r......
9 ................
0 rr..............
1 ..............tr
2 t....r........tr
3 t....fh..r......

Turn = 27.
  0123456789012345
0 r..r.......rr...
1 ......r...r.....
2 ................
3 ......r.........
4 r....r..........
5 ......r.........
6 ....r...r.......
7 ......r.........
8 ......r.........
9 .......rr.......
0 r.r..r...r......
1 .r.............r
2 ..r.r...........
3 .....r..........
4 r...............
5 ....t........r..
6 ....tr........r.
7 ...............r
8 rr..............
9 .r..............
0 r.....r....r....
1 .....r........tt
2 ..............tt
3 ...rr..r...r....

Turn = 36.
  0123456789012345
0 rr.rr..r........
1 .rr.............
2 ...............r
3 ..............rr
4 ..............r.
5 ...............r
6 r.....r.........
7 ................
8 ................
9 r...............
0 ...........r....
1 ................
2 r..............r
3 r....r..........
4 ................
5 ....t...r.......
6 ...rr.tt........
7 .r...r.........r
8 .........r......
9 r............r..
0 ..r............r
1 rrr...........tt
2 .r............tt
3 ..r...r....r.tt.

*** Darwin 19x21 ***
Turn = 0.
  012345678901234567890
0 .......fh....h.......
1 .....r...............
2 ........f.........r.h
3 .ft...........f..h...
4 ............r.....f..
5 .....h..........f....
6 ........h............
7 ..........t..........
8 f......f.............
9 f....................
0 rf..h..r.....r.......
1 ...........f........t
2 ........f............
3 .........f...........
4 r....h............r..
5 h..........f.t...h.r.
6 ....t.............hh.
7 ..h.....r.r.....t....
8 ........f........r..h

Turn = 16.
  012345678901234567890
0 ..r....fh....h.....rh
1 rrr................r.
2 ..rr...............r.
3 ..............f...r..
4 r....................
5 h...............f....
6 ....................h
7 ..........t..........
8 r......f............r
9 r..................r.
0 .....................
1 ...........rr...r....
2 ........f..r.........
3 ...r.....f...........
4 ...rt................
5 ....tr.............r.
6 ....t.............r..
7 ................t....
8 r.r....r.r.rr......r.

Turn = 32.
  012345678901234567890
0 ........r.rrrrr...rr.
1 ......r.......r..r..r
2 r..........r.....r...
3 ........r.rr..f......
4 ..........rr.........
5 ...r.....rr..r.......
6 ..............rr.....
7 .....................
8 ............r.r......
9 .r.............r.....
0 r....rr..............
1 r............r.......
2 ....r.r..............
3 .........f...........
4 r...t................
5 ....t................
6 ....tt...............
7 ................t....
8 ......rr.............

Turn = 48.
  012345678901234567890
0 rr......r.r.......r.r
1 r.r.........r.....r..
2 .r.......r.......rr..
3 ...............r....r
4 r............rr..r..r
5 ..r..................
6 ...rr......r........r
7 .....................
8 .r..................r
9 r....................
0 .....................
1 ................r....
2 ...................r.
3 ...r.....f...........
4 ....t................
5 ..r.t................
6 ..r.tt...............
7 ........r.......t....
8 r....r...rr....r....r

Turn = 64.
  012345678901234567890
0 r..........r...r.r...
1 ..rr........r........
2 .r.....r.............
3 ............r......r.
4 rr....r.............r
5 .......r.....r.....rr
6 ...r....r............
7 .....................
8 r....................
9 r...r................
0 r..r.................
1 r...r.r..............
2 ..................r..
3 ........rf..........r
4 .......r.............
5 rr................rr.
6 ....ttt.........t....
7 .......r.......tt....
8 r............r.......

*** Darwin 24x15 ***
Turn = 0.
  012345678901234
0 ..r.....t......
1 ......r.rh....r
2 .f.............
3 ...f.....r.....
4 ....r....r.....
5 rr.f.....f...t.
6 ...............
7 ..tt..t........
8 ..........f..t.
9 .f...r.........
0 .h..f..........
1 ..........r..t.
2 .f.....ff.....h
3 ..t............
4 .....t.....f...
5 ....f..........
6 ......f..f.....
7 ...............
8 ...............
9 ...............
0 ...............
1 .r..........h..
2 ...t.tth......f
3 f...........r..

Turn = 12.
  012345678901234
0 r...........r..
1 ...............
2 ..r.......r.rrr
3 r..f........rr.
4 ............t.t
5 ...f.....fr....
6 .............r.
7 ..tt..t........
8 ..........f..t.
9 ...............
0 r..hf..........
1 .............t.
2 .f.....ff.....h
3 ..t............
4 r....t.....f...
5 ....f..........
6 rr....f..f.....
7 ...............
8 ...............
9 ...............
0 ...............
1 .......t.......
2 ...t.ttt......f
3 ...t...........

Turn = 24.
  012345678901234
0 r..........r..r
1 ...........r...
2 ...............
3 .r.............
4 ...............
5 .r.r...........
6 ...rrrt........
7 ..tt..t........
8 .........r....r
9 ..............r
0 ...hf........tr
1 ............rtt
2 .....r.ff.....t
3 .....t.r...rr..
4 .....t....r....
5 ....f......r...
6 .........f.....
7 ...............
8 ...............
9 ...............
0 .....r.........
1 ......rt.......
2 ...t.ttt......f
3 ...t...........

Turn = 36.
  012345678901234
0 .......r...r..r
1 ...............
2 ...............
3 ...........r...
4 ...............
5 r..............
6 ...t..tt......r
7 ..ttttt........
8 .....t.........
9 .............t.
0 ...hf........tt
1 .............tt
2 r.............t
3 .....t.........
4 .....t.........
5 ....fr.........
6 .............r.
7 ..............r
8 ...............
9 .........r.....
0 ...r...rr......
1 .....rr........
2 r.....r..r.rr.f
3 ..r.......rr.r.

Turn = 48.
  012345678901234
0 ...............
1 ...............
2 ...............
3 r..............
4 ...............
5 ...............
6 ...t..tt....r..
7 ..ttttt......r.
8 ....rt.......t.
9 .............tt
0 ....r........tt
1 ....r.......rtt
2 ..............t
3 ...............
4 .........r.r...
5 .r..f.....r..rr
6 .........r.....
7 r.....r........
8 .......rr......
9 r..............
0 ...............
1 .r.....r....r..
2 rr.............
3 .r......r.r.r..

*** Darwin 22x10 ***
Turn = 0.
  0123456789
0 .......hf.
1 .....tr...
2 ..........
3 .th..h....
4 .....thhh.
5 ...h..r...
6 ..........
7 ...h.t....
8 .......t..
9 ..f..t..f.
0 ....h..t..
1 .....t....
2 ......hh..
3 ....r..h..
4 ....h.....
5 .r.r.rf.f.
6 .f..t.f...
7 ....h...ff
8 ..t.......
9 ........ff
0 h.....f.r.
1 ..t..hr...

Turn = 3.
  0123456789
0 .......hf.
1 .....t....
2 .....h....
3 .tt...r...
4 .....tt..h
5 ......t...
6 ..........
7 .....t..h.
8 ...h...t..
9 ..f..t..f.
0 ...h...t..
1 ....tt....
2 ....t..h..
3 ..........
4 ....r.rr..
5 ......r.f.
6 ....ttfh..
7 hr.....hff
8 .tt......r
9 ........r.
0 ......f..r
1 ..t....h.r

Turn = 6.
  0123456789
0 .......hf.
1 .....t....
2 .....t....
3 .tt...t...
4 .....tt..h
5 ......t...
6 ..........
7 .....t....
8 .......th.
9 ..f..t..f.
0 .......t..
1 ...trt....
2 ....r.r..h
3 ...hr.....
4 h.........
5 ......rrfr
6 ....tttt.r
7 r......tt.
8 ...r....t.
9 ..........
0 ..r...f.r.
1 ...r....rr

Turn = 9.
  0123456789
0 .......hf.
1 .....t....
2 .....t....
3 .tt...t...
4 .....tt..h
5 ......t...
6 ..........
7 .....t....
8 .......tt.
9 ..f..t..t.
0 ....r..t..
1 h..r.tt...
2 ..r.....rr
3 .r.......r
4 .........r
5 ......t..r
6 ...htttt..
7 .......tt.
8 ......r.t.
9 r.........
0 ......r...
1 ...r.rr.rr

Turn = 12.
  0123456789
0 .......hf.
1 .....t....
2 .....t....
3 .tt...t...
4 .....tt..h
5 ......t...
6 ..........
7 ....rt....
8 h......tt.
9 ..f..t..r.
0 .......trr
1 r....tt...
2 r.........
3 .......r..
4 r.......r.
5 ......t...
6 ....tttt..
7 .......trr
8 .......rrr
9 ...h......
0 ...r.r..r.
1 r...r..r..

Turn = 15.
  0123456789
0 .......hf.
1 .....t....
2 .....t....
3 .tt...t...
4 ....rtt..h
5 h.....t...
6 ..........
7 .....t...r
8 .......rr.
9 ..f..rr.r.
0 .......t..
1 .....tt...
2 ..........
3 r...r.....
4 .....r....
5 r.....t...
6 ....tttt..
7 r....r.ttr
8 .......rr.
9 .......r.r
0 r.........
1 r..h...r.r

Turn = 18.
  0123456789
0 .......hf.
1 ....rt....
2 h....t....
3 .tt...t...
4 .....tt..r
5 ......t..r
6 ..........
7 .....t....
8 ........r.
9 ..rrrr....
0 .......tt.
1 .....tt...
2 ..........
3 .r........
4 ..r.......
5 ......t...
6 r...tttt..
7 .....t.rr.
8 r....r....
9 r...r...r.
0 r.......rr
1 r..h....rr

Turn = 21.
  0123456789
0 h....r.hf.
1 .....t....
2 .....t...r
3 .tt...t...
4 .....tt...
5 ......tr..
6 ..........
7 .....t...r
8 ..........
9 rrr.......
0 .......tt.
1 .....tt...
2 ....r.....
3 r.........
4 r.........
5 ......t...
6 ....tttt..
7 .r...t.t..
8 ..rr....r.
9 ..rr....r.
0 ..r..r.r..
1 .r.h...r.r

Turn = 24.
  0123456789
0 h.....rrfr
1 .....t....
2 .....t....
3 .tt...t...
4 .....tt..r
5 ....r.t...
6 r.........
7 .....t....
8 ..........
9 r.........
0 .......tt.
1 .....tt...
2 .r........
3 ...r......
4 ..........
5 ...rr.t.r.
6 ....ttttr.
7 r.rr.t.t..
8 .r........
9 ....r.....
0 ..rr.....r
1 ..rrr..r..

Turn = 27.
  0123456789
0 h......rrr
1 .....t...r
2 .....tr...
3 rtt....r..
4 .....tt...
5 .r....t...
6 r.........
7 .....t....
8 ..........
9 ..........
0 .......tt.
1 .....tt...
2 ...r....r.
3 ......r.r.
4 ...r......
5 .r...rr...
6 ....rrrt..
7 ....rt.t..
8 ...r.....r
9 ..r.r.....
0 rrr.......
1 rr..r.....

Turn = 30.
  0123456789
0 r....r...r
1 r....t....
2 .....ttt.r
3 .tt......r
4 .....tt...
5 ......t...
6 r.r.......
7 .....t....
8 ..........
9 ...r......
0 .......rr.
1 ...r.tt.r.
2 .........r
3 ....rr...r
4 ..........
5 ......r..r
6 ....r.tt..
7 .r..r.r.r.
8 .rr.......
9 r.........
0 r..r.r....
1 rrr.......

*** Darwin 13x20 ***
Turn = 0.
  01234567890123456789
0 .f..................
1 ..f..f......f.......
2 ...h.........t...f..
3 ..r.t.............t.
4 .hf................h
5 ..fh.h.........hhr..
6 .f...htr.h.....f....
7 t.......h....t......
8 ...h......t.t.....r.
9 .....tt......rr.....
0 .h...............f..
1 ...h.......t..f....t
2 ....................

Turn = 3.
  01234567890123456789
0 .f..................
1 ..f..f......f.......
2 ......h......t...f..
3 ...tth...h........t.
4 h.f.............hr..
5 ..fh....h...h.......
6 .f....t...r....fr...
7 t....h.......t......
8 .....t....t.t..r....
9 .....tt.............
0 ....h.........r..f..
1 h..........t.r.r...t
2 ....................

Turn = 6.
  01234567890123456789
0 .f.......h..........
1 ..f..f......f.......
2 .........h...t..rr..
3 ...ttt............t.
4 h.f..........h......
5 ..fh......hh........
6 .f....t......t.f....
7 t.h..........t......
8 .....t....t.tt......
9 .....tt.........r...
0 .....t...........f..
1 h..........t......rt
2 ............r.r.....

Turn = 9.
  01234567890123456789
0 .f.......h.......r..
1 ..f..f......f.......
2 ............htt.....
3 ...ttt............t.
4 h.f.......h.........
5 ..fh......hh........
6 .f....t......t.f....
7 tt...........t......
8 .....t....t.tt......
9 .....tt............r
0 .....t...........fr.
1 h..........t........
2 ...........rr...r...

Turn = 12.
  01234567890123456789
0 .f.......h.........r
1 ..f..f......f.......
2 ............ttt.....
3 ...ttt............t.
4 h.f....h............
5 ..fh......hh........
6 .t....t......t.f...r
7 tt...........t....r.
8 .....t....t.tt......
9 .....tt.............
0 .....t...........f..
1 h..........t........
2 ...........rr.r.....

Turn = 15.
  01234567890123456789
0 .f.......h..........
1 ..f..f......t.......
2 ............ttt.....
3 ...ttt............tr
4 h.f.h.............rr
5 ..fh......hh........
6 .t....t......t.f....
7 tt...........t......
8 .....t....t.tt......
9 .....tt.............
0 .....t...........f..
1 h..........tr.......
2 ...........t.r......

Turn = 18.
  01234567890123456789
0 .f.......h..........
1 ..f..f......t.......
2 ............ttt.....
3 ...ttt............r.
4 h.f.t............r.r
5 ..fh......hh........
6 .t....t......t.f...r
7 tt...........t......
8 .....t....t.tt......
9 .....tt.....t.......
0 .....t...........f..
1 h..........t........
2 ...........t....r...

Turn = 21.
  01234567890123456789
0 .f.......h..........
1 ..f..f......t.......
2 ............ttt.....
3 ...ttt..............
4 h.f.t.........r.....
5 ..fh......hh........
6 .t....t......t.f..r.
7 tt...........t.....r
8 .....t....t.tt......
9 .....tt.....t......r
0 .....t...........f..
1 h..........t........
2 ...........t.......r

Turn = 24.
  01234567890123456789
0 .f.......h..........
1 ..f..f......t.......
2 ............ttt.....
3 ...ttt..............
4 h.f.t......r........
5 ..fh......hh........
6 .t....t......t.f....
7 tt...........t......
8 .....t....t.tt......
9 .....tt.....t.....r.
0 .....t...........f.r
1 h..........t.......r
2 ...........t......r.

Turn = 27.
  01234567890123456789
0 .f.......h..........
1 ..f..f......t.......
2 ............ttt.....
3 ...ttt..............
4 h.f.t...r...........
5 ..fh......hh........
6 .t....t......t.f....
7 tt...........t......
8 .....t....t.tt......
9 .....tt.....t......r
0 .....t...........fr.
1 h..........t....r...
2 ...........t...r....

Turn = 30.
  01234567890123456789
0 .f.......h..........
1 ..f..f......t.......
2 ............ttt.....
3 ...ttt..............
4 h.f.tr..............
5 ..fh......hh........
6 .t....t......t.f...r
7 tt...........t......
8 .....t....t.tt......
9 .....tt.....t.......
0 .....t...........f..
1 h..........t.r......
2 ...........tr.....r.

Turn = 33.
  01234567890123456789
0 .f.......h..........
1 ..f..f......t.......
2 ............ttt.....
3 ...ttt.............r
4 h.ttt...............
5 ..fh......hh........
6 .t....t......t.f....
7 tt...........t......
8 .....t....t.tt......
9 .....tt.....t.......
0 .....t...........f..
1 h.........rr........
2 ...........rr..r....

Turn = 36.
  01234567890123456789
0 .f.......h.........r
1 ..f..f......t.......
2 ............ttt.....
3 ...ttt..............
4 h.ttt...............
5 ..tt......hh........
6 .t....t......t.f....
7 tt...........t......
8 .....t....t.tt......
9 .....tt.....t.......
0 .....t...........f..
1 h......rr.....r.....
2 ........r....r......

Turn = 39.
  01234567890123456789
0 .f.......h.........r
1 ..f..f......t.......
2 ............ttt.....
3 ...ttt..............
4 h.ttt...............
5 ..tt......hh........
6 .t....t......t.f....
7 tt...........t......
8 .....t....t.ttr.....
9 .....tt.....t.......
0 .....t...........f..
1 h...rr..............
2 .....r....r.........

Turn = 42.
  01234567890123456789
0 .f.......h........r.
1 ..f..f......t.......
2 ............ttt.....
3 ...ttt..............
4 h.ttt...............
5 ..tt......hh........
6 .t....t......t.f....
7 tt...........t......
8 .....t....t.ttt.....
9 .....tt.....t.......
0 .....t...........f..
1 hr...t..............
2 ..r....r............

Turn = 45.
  01234567890123456789
0 .f.......h.....r....
1 ..f..f......t.......
2 ............ttt.....
3 ...ttt..............
4 h.ttt...............
5 ..tt......hh........
6 .t....t......t.f....
7 tt...........t......
8 .....t....t.ttt.....
9 .....tt.....t.......
0 r....t...........f..
1 .....t..............
2 rr...t..............

Turn = 48.
  01234567890123456789
0 .f.......h..r.......
1 ..f..f......t.......
2 ............ttt.....
3 ...ttt..............
4 h.ttt...............
5 ..tt......hh........
6 .t....t......t.f....
7 tt...........t......
8 t....t....t.ttt.....
9 r....tt.....t.......
0 .....t...........f..
1 .....t..............
2 ...r.t..............

Turn = 51.
  01234567890123456789
0 .f.......rr.........
1 ..f..f......t.......
2 ............ttt.....
3 ...ttt..............
4 h.ttt...............
5 ..tt......hh........
6 .t....t......t.f....
7 tt...........t......
8 r....t....t.ttt.....
9 r....tt.....t.......
0 .....t...........f..
1 .....t..............
2 ....tt..............

*** Darwin 17x22 ***
Turn = 0.
  0123456789012345678901
0 ....h.tf..............
1 ............t...f.r...
2 .rrt.....f..........h.
3 ...............r......
4 ..............rh......
5 .f....................
6 ....................r.
7 ......................
8 ..ht..htt.............
9 ...h...hfr............
0 .........r......h.....
1 ..............hf......
2 ........r.h...........
3 t..............rt....t
4 ..........f........f..
5 .f......h....thh......
6 .......r....h......f..

Turn = 20.
  0123456789012345678901
0 r.h...ttt.hr.r........
1 r...........t...f.....
2 h...........t....r....
3 ......................
4 .....................h
5 .f...................r
6 ....................r.
7 ...t...rt.............
8 r..t.r..t.............
9 .....r..t.............
0 ......................
1 ......................
2 ......r........r.....r
3 ......r.........t....r
4 ............rr.....f..
5 .fh...................
6 ......hh.r.rr.r....f..

Turn = 40.
  0123456789012345678901
0 ...r....r.rr..r.r.rr..
1 ..........r..rr.......
2 ......rr...rrr.....r.r
3 ........r...tt........
4 ...r..................
5 r..............r......
6 ......................
7 ...t...r.....r........
8 .....r................
9 ........tr............
0 ................r.....
1 ...r.............r....
2 r.r....r..............
3 ....r..r........r..r..
4 .....................r
5 .fh.............r.....
6 .....................r

Turn = 60.
  0123456789012345678901
0 r.r.............r.r..r
1 .rr...................
2 ....r.................
3 .r..............rr....
4 ...............r...r..
5 ....r.r...........r.r.
6 .....r...............r
7 ...t....r...........r.
8 .r.t....r...r......r.r
9 ......................
0 r............r......r.
1 .....................r
2 ....................r.
3 .............rr......r
4 ..........r...........
5 rrh...................
6 .r.......rr....r.....r

Turn = 80.
  0123456789012345678901
0 rrrr..r.........r..r.r
1 ............r.........
2 rr...r............r...
3 r.....................
4 r...r.................
5 .......rr.............
6 ......r............r..
7 ...tttr.............r.
8 ..tttt................
9 ..t..rr...............
0 ......r...............
1 ...r...r..............
2 ..r...................
3 ..................r...
4 ......................
5 r.....r.........rr....
6 .......r....r.....r..r

*** Darwin 25x16 ***
Turn = 0.
  0123456789012345
0 r..ft...........
1 ..f.............
2 ...........f....
3 ........f...t...
4 ...........f....
5 rf........h..r..
6 ........h.......
7 ......ht.....h..
8 ...........t....
9 .......tth.r....
0 r.t..........f..
1 .......t........
2 h.........r.h...
3 ...hh...........
4 ................
5 .............f..
6 ................
7 .t...ft.........
8 ...h.....r..t...
9 .f..........t...
0 ................
1 r.f....h.......f
2 ...........f..t.
3 .......h....f..h
4 f...............

Turn = 19.
  0123456789012345
0 ........r.r.....
1 r.f............r
2 ...........r....
3 ........f..rr...
4 ....r......rr...
5 ................
6 ................
7 .......tt.......
8 ...........t....
9 .......ttt......
0 .............f..
1 .......t........
2 .......r........
3 .r..........r...
4 ..r.......r.r...
5 .............f..
6 .t..............
7 .t..rr..........
8 ..r.r.r........r
9 .f..............
0 r..r............
1 ..............tt
2 rr..............
3 .............r.r
4 r...r........rrr

Turn = 38.
  0123456789012345
0 r..rr...r......r
1 ..r...r.........
2 ......r.........
3 ..r.............
4 ..r..........r..
5 ................
6 ................
7 rr.....tt....rr.
8 .r.........t....
9 r.....rttr....rr
0 ......r..r....r.
1 r......t........
2 .......t........
3 ................
4 ................
5 r.......r.......
6 .........r......
7 ................
8 ..............r.
9 r.r...r.........
0 ....r.r...r....r
1 .r........r.....
2 ..........r.....
3 ..........r.....
4 .......r.r......

*** Darwin 17x24 ***
Turn = 0.
  012345678901234567890123
0 ..h......f.....r........
1 .............t..........
2 ........................
3 ..............t.........
4 ....h......t........r...
5 ..f......rh.f.....f.....
6 .r...r.r..h........t.f..
7 ...............fr.......
8 ..................r...f.
9 ..........t..h..........
0 ...........h....f.......
1 .........t.ht......r....
2 ........................
3 ...t...h.......t......r.
4 .........f............hh
5 .r..........t......f..t.
6 ..f........t....f.......

Turn = 9.
  012345678901234567890123
0 ....rr..hf......r.r...r.
1 .............t..........
2 ........................
3 ..............t....r....
4 ...........t..r.........
5 ..f........t.r.........h
6 ..............r...rr.f..
7 ........................
8 r.....................f.
9 ..........tt............
0 ...........tr...f.......
1 ....r....t..............
2 .....r......r..t........
3 ...t..........tt........
4 .........f.........r..rr
5 ............t.........t.
6 ..f........t....f.....t.

Turn = 18.
  012345678901234567890123
0 r..r....hf...t......r...
1 .............t...r......
2 .......................r
3 ......r..............rrr
4 ...........tr..........r
5 ..f........t..r....r....
6 ......................r.
7 ......................r.
8 .......................r
9 .....r....tt............
0 ...........t....f.......
1 .........t..............
2 ...............t........
3 ...t...r......tt........
4 .........f..............
5 ................r.....tt
6 ..f....r.r.tt...f.....t.

Turn = 27.
  012345678901234567890123
0 ...........rrrr.r...r...
1 .............t.........r
2 ...............r........
3 .......r..............r.
4 ...........tt...........
5 r.f..r.....t............
6 ...............r.rr.....
7 ........................
8 r.......................
9 ..........tt............
0 ............r...f.......
1 .........tr.r...........
2 ...........r...t........
3 ..........r...tt.......r
4 rr.......f...........r..
5 ......................tt
6 ..f...r.........f....rt.

Turn = 36.
  012345678901234567890123
0 .............r..........
1 .............r..........
2 ......r.................
3 r.......r.....rr........
4 ........r...t..........r
5 .......r....t...........
6 ......r.......r.........
7 ........................
8 ..............r.........
9 ..........tt.........r..
0 ...........t........r...
1 ..rr....................
2 ..r....r.......ttt....r.
3 ..............tt........
4 rr........r.r...........
5 r..........r......r...tt
6 r...........r..rrr.....t

Turn = 45.
  012345678901234567890123
0 ...rr................r..
1 ....r...................
2 ........................
3 r.......................
4 rr..........t...........
5 rr..........t...........
6 r.......................
7 ........................
8 r.......................
9 ..........tt............
0 ...........t...r........
1 ..........r...rr.......r
2 ..............rr..r.....
3 .......r...............r
4 ...r..........rrr.r...t.
5 r..r............rr....tt
6 .r.r.........rr.rr.....t

*** Darwin 16x24 ***
Turn = 0.
  012345678901234567890123
0 .f..r....h..........f...
1 ...t..............f.....
2 ........................
3 .....r...ff............h
4 t..h..rr........f.......
5 ........f...............
6 r...r.ft.rr.r...f..h....
7 ........r...hh.....h....
8 ...........r.......f...t
9 ......t....f..fh..f.....
0 ..h..........r.......r..
1 t.............f.........
2 r.......................
3 r....................r..
4 ..........t...h.....h...
5 ...............r........

Turn = 15.
  012345678901234567890123
0 .f................r.h...
1 ...trr............f.....
2 ...t....r.........r.rr..
3 ...r.....ff............h
4 tr..............r.r.....
5 r.....r.................
6 r.....r.....r...f......r
7 r.r...........r.......r.
8 ...r..r..............r.r
9 ..............f...f...rr
0 ........................
1 r.............f.........
2 .....rr.................
3 .......r................
4 ...r..r...t.............
5 .....r.........h........

Turn = 30.
  012345678901234567890123
0 .r.r....r..r.r.r........
1 ...t..rr..r...r.........
2 r..tt.r..r..r...........
3 ...t..........r.......r.
4 tt...........r.........r
5 t.........r.............
6 ........................
7 r.............r........r
8 .....................r..
9 r........r............r.
0 .......................r
1 r.............r.........
2 ....r.........r.........
3 .....r..................
4 .....r....t...........rr
5 ......r...........rrrrr.

Turn = 45.
  012345678901234567890123
0 r...r...r.......r..rr.r.
1 ....r..............rr..r
2 t....r.........r........
3 tt.....r................
4 tt......................
5 t.....r...r.............
6 ..........r.............
7 ..............r.........
8 ........................
9 ....r...................
0 r...r.rrrr.......r......
1 r...........rrr.........
2 .............r..........
3 ............r..r........
4 .........ttt..........r.
5 ..........r....rr.rr...r

Turn = 60.
  012345678901234567890123
0 ..........r.r......r.rr.
1 .............r..........
2 tt........r.........r..r
3 tt.............r........
4 ..............r........r
5 .................r......
6 .....................r..
7 .....................r.r
8 ...........rr...........
9 .......r...........r...r
0 ..r...........r...rr....
1 ..r.....................
2 .r....................r.
3 r........t.tt...........
4 .........tttt.......r..r
5 r......r.r.r...rr......r

Turn = 75.
  012345678901234567890123
0 r.r........r........rr..
1 r.r........r............
2 rr.........r...r........
3 rt......................
4 .tr.r......r....r.......
5 ..........r...r.........
6 r............r..........
7 ............rr.........r
8 ..........r.............
9 ........r.r...r........r
0 ..............rr....r...
1 .............r..........
2 ....................r...
3 .........r.r.....r......
4 .......r.tttt...........
5 ..........ttt.........rr

Turn = 90.
  012345678901234567890123
0 r.rr.r.r........r......r
1 rr...............r.....r
2 rr..rr................r.
3 rr.r..r.................
4 .r.....rr...............
5 rr.r............r.r.....
6 ...........r............
7 .......................r
8 ...r....................
9 r................r.....r
0 r.......................
1 .......r................
2 ........................
3 rr.........tr...........
4 .........tttt...........
5 ..r.......ttrr..........

*** Darwin 24x15 ***
Turn = 0.
  012345678901234
0 .f.............
1 f........r...r.
2 ..........r..r.
3 ......t......r.
4 .....t...hhh...
5 .......f.......
6 ..........h....
7 .............tt
8 ..........h....
9 .........f.....
0 ............htr
1 .....t...r.t...
2 ...........t...
3 ..h........ff..
4 ..............h
5 ......f...t...t
6 .........h.....
7 .t........f....
8 t.........r....
9 ...............
0 .h....tf.......
1 ...rt..r.......
2 ..t.......t....
3 ....th.........

Turn = 14.
  012345678901234
0 .f...r.r...r...
1 f..............
2 ...............
3 ......tt..r....
4 .....tt....r...
5 .......f.......
6 .r............t
7 r..r........ttt
8 ..............t
9 ...............
0 h....t.....t...
1 .....t.....t...
2 .....h.....t...
3 ..........ttt..
4 ..............t
5 ......f......tt
6 .rr............
7 r..............
8 r..............
9 ...............
0 h.....tt.......
1 .r..t.t........
2 ..t.......t....
3 ....t..........

Turn = 28.
  012345678901234
0 ...............
1 ...............
2 ...............
3 ......tt.......
4 ..r..tt........
5 ...r...f.......
6 r...r.........t
7 r...........ttt
8 r......r......t
9 ....rr.........
0 .r...t.....t...
1 .....t.....t...
2 .....t.....t...
3 r.........ttt..
4 ..............t
5 ......f......tt
6 .r.............
7 ...............
8 .........rr....
9 ...............
0 r...r.tt.......
1 ...tt.t........
2 ..t.......t....
3 ....t..........

Turn = 42.
  012345678901234
0 .r...r.........
1 ...............
2 ...............
3 ......tt.......
4 r....tt........
5 .......f.......
6 .............rt
7 ...........rr.t
8 .............tt
9 ...............
0 .....t.r...t...
1 .....t.....t...
2 .....tt....t...
3 .r........ttt..
4 .........r....t
5 r............tt
6 ..........r...r
7 ...............
8 r........r.....
9 ...............
0 ...rt.t........
1 ...tt.t........
2 .tt............
3 ..t.t.........r

Turn = 56.
  012345678901234
0 .r...........rr
1 ...............
2 ...............
3 ......tt.......
4 .....tt..r....r
5 ..............r
6 ............rrr
7 ...........r.rr
8 ....r.........r
9 ...r...........
0 .....t.....t..r
1 .....t.....t...
2 .....tt....t...
3 ..........ttt..
4 ...............
5 .............tt
6 ...............
7 ...............
8 r..............
9 ........r......
0 ......t........
1 .....rt.......r
2 .tt..........r.
3 ttttt.......r..

Turn = 70.
  012345678901234
0 .r..........r.r
1 ...............
2 ...............
3 ......tttr.....
4 ....rttt.......
5 r......r.......
6 .r..r..........
7 .r.............
8 ...............
9 ..........r....
0 .....t.....t..r
1 .....t.....tt.r
2 r....tt....t...
3 ..........ttt..
4 ...............
5 .........r.....
6 .............r.
7 ...............
8 ...............
9 ...............
0 ......t........
1 r.....t......rr
2 ttt............
3 rrttt...r......

*** Darwin 12x15 ***
Turn = 0.
  012345678901234
0 t..r........h..
1 .....fff..h....
2 .....t.hr...r.h
3 ....t..r.t..h.r
4 .h......f....h.
5 ........f......
6 .r..f...ttt....
7 ..tr...f...h...
8 .............h.
9 ....tfh..f..t.r
0 ...rht.....f...
1 .......r.r...h.

Turn = 10.
  012345678901234
0 .r........rrr..
1 r....trt......h
2 .....tr..r..r..
3 ....t.r..rr....
4 r.......tt.....
5 ....r...t......
6 ........ttt....
7 ..t..r.......r.
8 ...r........t..
9 r...ttt....tt..
0 ....tt.....t...
1 .h....hh...t.r.

Turn = 20.
  012345678901234
0 r...rrr........
1 ....r.rr......r
2 .....trtt.....r
3 ......r..r.....
4 ........tt.....
5 ........tt.....
6 ........ttt....
7 ..r....r....t..
8 ...r.t.....rt..
9 ..r.ttt...r....
0 ....tt.....r..r
1 rh....hh...rr..

Turn = 30.
  012345678901234
0 ............r.r
1 r......t.......
2 ...rrrttt.rr...
3 ...............
4 ........tt.....
5 rr......tt.....
6 ........tttt...
7 r...r.....t...r
8 .....tt........
9 ...tttttrr.....
0 ....tt.rr......
1 ...r.rr...r...r

Turn = 40.
  012345678901234
0 r.rrr..........
1 .......t.......
2 ......ttt......
3 ...............
4 ........ttt....
5 r.......tt.....
6 ........tttt..r
7 ..r.....ttt....
8 ....ttt....r...
9 ....tttt...r...
0 ...rttt..r...rr
1 ...rt.....r.r.r

Turn = 50.
  012345678901234
0 ..........r.r.r
1 .......t.......
2 ......ttt...r..
3 ...............
4 ........ttt...r
5 r.......tt..r..
6 ........tttt...
7 ........ttt....
8 .r..ttt..t....r
9 r...tttt.......
0 ....tttt...r...
1 rr....t.....rr.

Turn = 60.
  012345678901234
0 r.....r..r...r.
1 r......ttrr.r..
2 ......ttt......
3 ...............
4 .r......ttt....
5 ........tt.....
6 ........tttt...
7 ........ttt....
8 ....ttt..t...r.
9 ....tttt.......
0 ...ttttt....r..
1 .....rr.r......

*** Darwin 11x24 ***
Turn = 0.
  012345678901234567890123
0 f........r......f.f.....
1 .f..........f..........f
2 ..f....h............r...
3 ..th.hh...........h.f.t.
4 .r...............r......
5 ...........t...........r
6 .f...r.r.t.f............
7 ....r....h.t......f.f..f
8 ......t......r......h.t.
9 ...r........h..h........
0 ..f......r.fh..........h

Turn = 16.
  012345678901234567890123
0 r.r...........r.r.f.....
1 r...........f.r.........
2 .r..........hr..........
3 rrtt........rr......ttt.
4 r.......................
5 ...........t............
6 .....r...t.t............
7 r........r.r...rr......f
8 r.........rr..........t.
9 .............r.........r
0 ..r.r..r.r...r.....r...r

Turn = 32.
  012345678901234567890123
0 rrrr....rr.......r...r.r
1 ........r........rr....r
2 r..t............r.......
3 r.......................
4 ........r..........r....
5 ...rr......tt...........
6 ..r..r..tt.rr.........r.
7 .........t............rr
8 .........t............rr
9 .........rr............t
0 rr.......r.r...........t

Turn = 48.
  012345678901234567890123
0 ...rr.r.....r..r.rr...rr
1 ..r...........rr.......r
2 ....................r...
3 .......r....t......rr..r
4 .rr.........t..r...r....
5 ........r..tt...........
6 r......r....t...........
7 ........tt..............
8 ...r....rr..............
9 .r......................
0 r.r..r...r.rr........rr.

Turn = 64.
  012345678901234567890123
0 .....rr.r..r.....r......
1 rr.....rr...............
2 .......r......r.........
3 ................r.....r.
4 r....rr......r..........
5 ...r.r....rrt..........r
6 ....rr......t....r......
7 ...rr.......t...........
8 .r..r..r................
9 rr.......r..............
0 r.......r...r.r....rrrr.

Turn = 80.
  012345678901234567890123
0 r.r...r.r...rrr......rrr
1 ........r....rr.......rr
2 r..............r.....rrr
3 r...................r...
4 rr...............r......
5 r...r.........r..r......
6 rr..........t...........
7 ............t...........
8 ...........rt...........
9 ......r...r..rr.r...r...
0 ......r........r....r...

*** Darwin 21x10 ***
Turn = 0.
  0123456789
0 .......hr.
1 .t.....f..
2 .ff.......
3 h...tf.f..
4 .f.....r..
5 ........f.
6 h..f......
7 ...t......
8 ..........
9 .r.t....rh
0 .f...h....
1 t.....r...
2 ...h.....f
3 .h........
4 .th..h....
5 ..t...tt.r
6 .rh.......
7 .h...ht...
8 .r....r...
9 t........t
0 .....t....

Turn = 2.
  0123456789
0 .......h.r
1 .t.....f..
2 .ff.......
3 h...tf.f..
4 .f.......r
5 ........f.
6 ...t......
7 ...t.....h
8 h.........
9 ...t......
0 .r.rh.....
1 t.......r.
2 .....h...f
3 h.....r..r
4 .tt.......
5 ..t..ttt..
6 r...h.....
7 ...h..t...
8 ...r.tt...
9 t........t
0 .....t....

Turn = 4.
  0123456789
0 .......h..
1 .t.....f..
2 .tf......r
3 h...tt.f..
4 .f........
5 ........fr
6 ...t.....h
7 ...t......
8 ..........
9 ...t......
0 h..tt.....
1 t........r
2 .r.....h.r
3 h.......r.
4 .tt...r...
5 ..t..tr...
6 ......tr..
7 .....rt...
8 r...rrt...
9 t........t
0 .....t....

Turn = 6.
  0123456789
0 .......h..
1 .t.....f..
2 .tt.......
3 h...tt.f..
4 .f.......r
5 ........fr
6 ...t.....r
7 ...t......
8 ..........
9 ...t.....r
0 h..tt....r
1 t.........
2 .........h
3 hrr.......
4 .r...r....
5 ..t..t.rr.
6 ......r.r.
7 ....rrt...
8 ....r.t...
9 r.r......t
0 .....t....

Turn = 8.
  0123456789
0 .......h..
1 .t.....f..
2 .tt.......
3 h...tt.f..
4 .f.......r
5 ........rr
6 ...t......
7 ...t.....r
8 .........r
9 ...t.....r
0 t..tt.....
1 t.r.......
2 .........h
3 rr.....r..
4 ...rr.....
5 ..t.rt.r..
6 ........rr
7 ......r.r.
8 ..r...t...
9 ....r....t
0 r....t....

Turn = 10.
  0123456789
0 .......h..
1 .t.....f..
2 .tt......r
3 h...tt.fr.
4 .f........
5 ..........
6 ...t.....r
7 ...t.....r
8 .......r.r
9 ..rt......
0 t..tt.....
1 t......r..
2 .r.......h
3 ..........
4 r..r......
5 ..trtrr.r.
6 ........r.
7 .......r..
8 r.....t..r
9 ......r..t
0 r....t....

Turn = 12.
  0123456789
0 .......h.r
1 .t.....fr.
2 .tt.......
3 h...tt.f..
4 .f........
5 ..........
6 ...t...r..
7 ..rt.....r
8 .....r..r.
9 ...t...r..
0 tr.tt.....
1 t.........
2 .........h
3 ........r.
4 .r......r.
5 ..ttrr....
6 r.........
7 r....r....
8 ......tr.r
9 ........rr
0 ..r..t....

Turn = 14.
  0123456789
0 .......hrr
1 .t.....f..
2 .tt.......
3 h...tt.f..
4 .f........
5 ..r.......
6 ...t.r....
7 ...t...r..
8 ...r..r...
9 ...t..r...
0 tt.tt.....
1 t.......r.
2 ........rh
3 ..........
4 r.........
5 ..trr.....
6 r.........
7 r...r.....
8 ......rrr.
9 .....r...r
0 ....rt...r

*** Darwin 23x12 ***
Turn = 0.
  012345678901
0 ..........h.
1 .....r......
2 ..f...t.....
3 .....h......
4 fhf..rh.....
5 ..........f.
6 .ttf.fh.....
7 ......f.t...
8 ....r.......
9 .h..h..h....
0 .....t......
1 ..f.......fh
2 .......h....
3 ........f...
4 ............
5 .......f....
6 .r.......ft.
7 .......h....
8 ............
9 .rt....r.f..
0 f.h.........
1 h.....f..r..
2 ...f........

Turn = 3.
  012345678901
0 .....h....h.
1 ........r...
2 ..f...r.....
3 .....rr.....
4 f.f.........
5 .t........f.
6 .ttt.fh.....
7 ......f.t...
8 .r..........
9 ....h.......
0 ....tt.h....
1 ..f....h..fh
2 ............
3 .r......f...
4 ............
5 .......f....
6 .r.......tt.
7 ....h.......
8 ............
9 ..t.r....f..
0 f.h.........
1 h.....f.....
2 ...f....r...

Turn = 6.
  012345678901
0 .....r....h.
1 .....r.....r
2 ..f.r.......
3 ........r...
4 f.f.........
5 .t........f.
6 .ttt.fh.....
7 r.....f.t...
8 ............
9 .......h....
0 .r..tt.h....
1 ..f....h..fh
2 ............
3 .r......f...
4 ............
5 .......f....
6 .........tt.
7 .h..........
8 ............
9 ..rr.....f..
0 f.t.........
1 h.....f.....
2 ...f.r......

Turn = 9.
  012345678901
0 .......r..hr
1 .......r....
2 .rr.........
3 ...........r
4 r.f.........
5 tt........f.
6 .ttt.fh.....
7 .r....f.t...
8 ............
9 ..........h.
0 .r..tt.h....
1 ..f....h..fh
2 ............
3 ........f...
4 ............
5 .......f....
6 ..r......tt.
7 h...........
8 ............
9 .........f..
0 f.tt........
1 h..r..f.....
2 ...r........

Turn = 12.
  012345678901
0 .........rrr
1 ..........r.
2 ............
3 rr..........
4 r.f.........
5 rr........fr
6 rrtt.fh.....
7 .r....f.t...
8 ............
9 ...........h
0 ....tt.h....
1 ..f....h..fh
2 ............
3 ..r.....f...
4 ............
5 .......f....
6 .........tt.
7 h...........
8 ............
9 .........f..
0 f.rr........
1 h.r...f.....
2 r...........

Turn = 15.
  012345678901
0 ...........r
1 ...........r
2 .........r..
3 ..r........r
4 rrt.........
5 rrt.......f.
6 .rrt.fh.....
7 ......f.t...
8 ...........r
9 r..........h
0 ....tt.h....
1 ..rr...h..fh
2 ............
3 ........f...
4 ............
5 .......f....
6 .........tt.
7 h..r........
8 ............
9 .........f..
0 rr..........
1 rr....f.....
2 .r..........

Turn = 18.
  012345678901
0 ...........r
1 r.r.......r.
2 r.r.........
3 .rr..r......
4 ............
5 .........rf.
6 .r.t.fh....r
7 ......f.t...
8 .rr.......r.
9 ...........r
0 ....tt.h....
1 ......rh..fh
2 r...........
3 ........f...
4 ...r........
5 .......f....
6 .........tt.
7 h...........
8 r...........
9 .........f..
0 ..r.........
1 r.....f.....
2 r...r.......

Turn = 21.
  012345678901
0 .r.r........
1 rrr....r....
2 ...r........
3 ........r..r
4 ............
5 ..r.......f.
6 ...t.fh.....
7 ......f.t..r
8 ........tr.r
9 .r..........
0 ....tt..r...
1 .r.r..r...fh
2 ......r.....
3 ........f...
4 ............
5 r......f....
6 .........tt.
7 r...........
8 rr..........
9 .........f..
0 .....r......
1 ......f.....
2 ...r...r....

Turn = 24.
  012345678901
0 rr..r.r.....
1 ....r.......
2 ......r.....
3 ..r........r
4 ...r........
5 ..........fr
6 ...t.fh...r.
7 ......f.t..r
8 ...r....t...
9 ..........r.
0 ....tt.....r
1 .....t....fh
2 .r..........
3 ........f...
4 .r..........
5 ......rf....
6 .r.......tt.
7 r..r........
8 ....r.......
9 .........f..
0 ........r...
1 ......f.....
2 ......r...r.
